{
  "Actor": {
    "types": ["character", "npc"],
    "templates": {
      "base": {
        "position": {
          "value": 3,
          "min": 0,
          "max": 5
        },
        "health": {
          "value": 10,
          "min": 0,
          "max": 10
        },
        "biography": ""
      }
    },
    "character": {
      "templates": ["base"],
      "attributes": {
        "fortitude": 1,
        "intelligence": 1,
        "initiative": 1,
        "willpower": 1,
        "mobility": 1,
        "awareness": 1,
        "melee": 1,
        "medicine": 1,
        "ranged": 1,
        "engineering": 1,
        "charisma": 1,
        "survival": 1,
        "subterfuge": 1,
        "animals": 1,
        "craftsmanship": 1,
        "naval": 1
      }
    },
    "npc": {
      "templates": ["base"],
      "cr": 0
    }
  },
  "Item": {
    "types": ["item", "feature"],
    "templates": {
      "base": {
        "description": ""
      }
    },
    "item": {
      "templates": ["base"],
      "quantity": 1,
      "weight": 0,
      "formula": "d20 + @str.mod + ceil(@lvl / 2)"
    },
    "feature": {
      "templates": ["base"]
    }
  }
}
